%YAML 1.1
%TAG !u! tag:unity3d.com,2011:
--- !u!74 &7400000
AnimationClip:
  m_ObjectHideFlags: 0
  m_CorrespondingSourceObject: {fileID: 0}
  m_PrefabInternal: {fileID: 0}
  m_Name: GemCanvas_Idle
  serializedVersion: 6
  m_Legacy: 0
  m_Compressed: 0
  m_UseHighQualityCurve: 1
  m_RotationCurves: []
  m_CompressedRotationCurves: []
  m_EulerCurves: []
  m_PositionCurves: []
  m_ScaleCurves: []
  m_FloatCurves: []
  m_PPtrCurves:
  - curve:
    - time: 0
      value: {fileID: 21300000, guid: 3c9783740c3d5db4f923fb601119db2b, type: 3}
    - time: 0.083333336
      value: {fileID: 21300000, guid: 0dc8249c7df3c674597ad9ebb66b1a62, type: 3}
    - time: 0.16666667
      value: {fileID: 21300000, guid: 9c927136afd76d248add49cfd77dc4c9, type: 3}
    - time: 0.25
      value: {fileID: 21300000, guid: 66d2297cc8103a34e912922748ded725, type: 3}
    - time: 0.33333334
      value: {fileID: 21300000, guid: 59d5992ae408dd64a953f940aee5fcac, type: 3}
    attribute: m_Sprite
    path: 
    classID: 114
    script: {fileID: -765806418, guid: f70555f144d8491a825f0804e09c671c, type: 3}
  m_SampleRate: 12
  m_WrapMode: 0
  m_Bounds:
    m_Center: {x: 0, y: 0, z: 0}
    m_Extent: {x: 0, y: 0, z: 0}
  m_ClipBindingConstant:
    genericBindings:
    - serializedVersion: 2
      path: 0
      attribute: 2015549526
      script: {fileID: -765806418, guid: f70555f144d8491a825f0804e09c671c, type: 3}
      typeID: 114
      customType: 0
      isPPtrCurve: 1
    pptrCurveMapping:
    - {fileID: 21300000, guid: 3c9783740c3d5db4f923fb601119db2b, type: 3}
    - {fileID: 21300000, guid: 0dc8249c7df3c674597ad9ebb66b1a62, type: 3}
    - {fileID: 21300000, guid: 9c927136afd76d248add49cfd77dc4c9, type: 3}
    - {fileID: 21300000, guid: 66d2297cc8103a34e912922748ded725, type: 3}
    - {fileID: 21300000, guid: 59d5992ae408dd64a953f940aee5fcac, type: 3}
  m_AnimationClipSettings:
    serializedVersion: 2
    m_AdditiveReferencePoseClip: {fileID: 0}
    m_AdditiveReferencePoseTime: 0
    m_StartTime: 0
    m_StopTime: 0.4166667
    m_OrientationOffsetY: 0
    m_Level: 0
    m_CycleOffset: 0
    m_HasAdditiveReferencePose: 0
    m_LoopTime: 1
    m_LoopBlend: 0
    m_LoopBlendOrientation: 0
    m_LoopBlendPositionY: 0
    m_LoopBlendPositionXZ: 0
    m_KeepOriginalOrientation: 0
    m_KeepOriginalPositionY: 1
    m_KeepOriginalPositionXZ: 0
    m_HeightFromFeet: 0
    m_Mirror: 0
  m_EditorCurves: []
  m_EulerEditorCurves: []
  m_HasGenericRootTransform: 0
  m_HasMotionFloatCurves: 0
  m_GenerateMotionCurves: 0
  m_Events: []
